<svg width="44" height="44" viewBox="0 0 44 44" fill="none" xmlns="http://www.w3.org/2000/svg">
<path d="M20.9393 42.0693C21.5251 42.6551 22.4749 42.6551 23.0607 42.0693L32.6066 32.5233C33.1924 31.9375 33.1924 30.9878 32.6066 30.402C32.0208 29.8162 31.0711 29.8162 30.4853 30.402L22 38.8873L13.5147 30.402C12.9289 29.8162 11.9792 29.8162 11.3934 30.402C10.8076 30.9878 10.8076 31.9375 11.3934 32.5233L20.9393 42.0693ZM20.5 2L20.5 41.0086H23.5L23.5 2L20.5 2Z" fill="white"/>
</svg>
