<svg width="24" height="22" viewBox="0 0 24 22" fill="none" xmlns="http://www.w3.org/2000/svg">
<path d="M22.9526 0.562168C21.8696 -0.0209866 20.6616 1.10367 19.9535 1.77013C18.329 3.35298 16.9545 5.18575 15.4132 6.85191C13.7054 8.68468 12.1225 10.5175 10.3731 12.3086C9.37338 13.3083 8.29038 14.3913 7.62392 15.641C6.12438 14.183 4.8331 12.6001 3.16695 11.3089C1.95898 10.3926 -0.040403 9.7261 0.00125095 11.9338C0.0845588 14.8079 2.62545 17.8903 4.49987 19.848C5.2913 20.6811 6.33264 21.5558 7.54061 21.5975C8.9985 21.6808 10.498 19.9313 11.3728 18.9733C12.914 17.3071 14.1636 15.4326 15.5798 13.7249C17.4126 11.4756 19.287 9.26783 21.0781 6.97687C22.2028 5.56064 25.7434 2.06164 22.9526 0.562168ZM1.83395 11.7671C1.7923 11.7671 1.75065 11.7671 1.66734 11.8087C1.50072 11.7671 1.37576 11.7254 1.20915 11.6421C1.33411 11.5588 1.54238 11.6005 1.83395 11.7671Z" fill="white"/>
</svg>
