<svg width="24" height="24" viewBox="0 0 24 24" fill="none" xmlns="http://www.w3.org/2000/svg">
<path d="M12 23.2C5.81446 23.2 0.800049 18.1856 0.800049 12C0.800049 5.81446 5.81446 0.800049 12 0.800049C18.1856 0.800049 23.2 5.81446 23.2 12C23.2 18.1856 18.1856 23.2 12 23.2ZM12 23.2V10.4C12 8.63274 13.4327 7.20005 15.2 7.20005H16M8.00005 13.6H16" stroke="white"/>
</svg>
