<svg width="76" height="76" viewBox="0 0 76 76" fill="none" xmlns="http://www.w3.org/2000/svg">
<g clip-path="url(#clip0)">
<path d="M19.7902 58.6821C14.7206 58.6821 10.2111 55.4361 8.57361 50.6037L8.46286 50.2395C8.07668 48.9598 7.9149 47.8836 7.9149 46.8068V25.2156L0.232491 50.8599C-0.75557 54.6319 1.49598 58.5424 5.27369 59.5843L54.2413 72.6982C54.8525 72.8565 55.4636 72.9324 56.0655 72.9324C59.2193 72.9324 62.1011 70.8392 62.9089 67.7544L65.7617 58.6821H19.7902Z" fill="white"/>
<path d="M28.4992 25.4313C31.9922 25.4313 34.8323 22.5906 34.8323 19.0976C34.8323 15.6046 31.9922 12.7639 28.4992 12.7639C25.0062 12.7639 22.1655 15.6046 22.1655 19.0976C22.1655 22.5906 25.0062 25.4313 28.4992 25.4313Z" fill="white"/>
<path d="M68.0829 3.26343H20.5817C16.2183 3.26343 12.665 6.81674 12.665 11.1807V46.0145C12.665 50.3784 16.2183 53.9317 20.5817 53.9317H68.0829C72.4468 53.9317 76.0001 50.3784 76.0001 46.0145V11.1807C76.0001 6.81674 72.4468 3.26343 68.0829 3.26343ZM20.5817 9.59711H68.0829C68.9573 9.59711 69.6664 10.3063 69.6664 11.1807V33.6614L59.6629 21.9885C58.6018 20.7441 57.0658 20.079 55.4161 20.0413C53.7757 20.0506 52.2368 20.7789 51.1855 22.0395L39.4239 36.1565L35.5922 32.3341C33.4265 30.1684 29.9016 30.1684 27.7388 32.3341L18.9987 41.0713V11.1807C18.9987 10.3063 19.7079 9.59711 20.5817 9.59711Z" fill="white"/>
</g>
<defs>
<clipPath id="clip0">
<rect width="76" height="76" fill="white"/>
</clipPath>
</defs>
</svg>
