<svg width="24" height="24" viewBox="0 0 24 24" fill="none" xmlns="http://www.w3.org/2000/svg">
<path d="M17.6 5.60005H19.2M7.20005 0.800049H16.8C20.3347 0.800049 23.2 3.66543 23.2 7.20005V16.8C23.2 20.3347 20.3347 23.2 16.8 23.2H7.20005C3.66543 23.2 0.800049 20.3347 0.800049 16.8V7.20005C0.800049 3.66543 3.66543 0.800049 7.20005 0.800049ZM12 16.8C9.34908 16.8 7.20005 14.651 7.20005 12C7.20005 9.34908 9.34908 7.20005 12 7.20005C14.651 7.20005 16.8 9.34908 16.8 12C16.8 14.651 14.651 16.8 12 16.8Z" stroke="white"/>
</svg>
