<svg width="20" height="21" viewBox="0 0 20 21" fill="none" xmlns="http://www.w3.org/2000/svg">
<g clip-path="url(#clip0)">
<path d="M10 0.5C6.12297 0.5 2.96875 3.65422 2.96875 7.53125C2.96875 8.84117 3.3316 10.1195 4.01832 11.2286L9.59977 20.223C9.70668 20.3953 9.89504 20.5 10.0976 20.5C10.0992 20.5 10.1007 20.5 10.1023 20.5C10.3066 20.4984 10.4954 20.3905 10.6003 20.2152L16.0395 11.1336C16.6883 10.048 17.0312 8.80231 17.0312 7.53125C17.0312 3.65422 13.877 0.5 10 0.5ZM15.0338 10.532L10.0887 18.7885L5.01434 10.6112C4.44273 9.68805 4.13281 8.62305 4.13281 7.53125C4.13281 4.30039 6.76914 1.66406 10 1.66406C13.2309 1.66406 15.8633 4.30039 15.8633 7.53125C15.8633 8.59066 15.5738 9.62844 15.0338 10.532Z" fill="white"/>
<path d="M10 4.01562C8.06148 4.01562 6.48438 5.59273 6.48438 7.53125C6.48438 9.45738 8.03582 11.0469 10 11.0469C11.9884 11.0469 13.5156 9.43621 13.5156 7.53125C13.5156 5.59273 11.9385 4.01562 10 4.01562ZM10 9.88281C8.7009 9.88281 7.64844 8.82684 7.64844 7.53125C7.64844 6.23891 8.70766 5.17969 10 5.17969C11.2923 5.17969 12.3477 6.23891 12.3477 7.53125C12.3477 8.80793 11.3197 9.88281 10 9.88281Z" fill="white"/>
</g>
<defs>
<clipPath id="clip0">
<rect width="20" height="20" fill="white" transform="translate(0 0.5)"/>
</clipPath>
</defs>
</svg>
