<svg width="30" height="51" viewBox="0 0 30 51" fill="none" xmlns="http://www.w3.org/2000/svg">
<path d="M27.667 49.3333L2.00033 25.5L27.667 1.66663" stroke="white" stroke-width="2" stroke-linecap="square"/>
</svg>
