<svg width="20" height="20" viewBox="0 0 20 20" fill="none" xmlns="http://www.w3.org/2000/svg">
<path d="M10.0412 1.51051L10.2709 1.06638L10.0412 1.51051C10.0614 1.52093 10.0824 1.54057 10.0966 1.57075L12.2613 6.16645C12.5074 6.689 12.9894 7.06255 13.5602 7.14945L18.4005 7.8864C18.4445 7.89309 18.5122 7.95009 18.4983 8.05039C18.4933 8.08651 18.4775 8.11625 18.4578 8.13635L14.9553 11.7136C14.5525 12.125 14.3738 12.7106 14.467 13.2796L15.2938 18.3308C15.3102 18.4306 15.2436 18.4905 15.1989 18.4985C15.1802 18.5019 15.16 18.4991 15.1403 18.4882L10.8109 16.1034C10.3041 15.8242 9.69585 15.8242 9.18899 16.1034L4.85963 18.4882C4.83525 18.5017 4.81171 18.5029 4.78915 18.4955C4.76606 18.488 4.73961 18.4697 4.72107 18.4327C4.70613 18.4029 4.70021 18.3668 4.7061 18.3308L5.53293 13.2796C5.62607 12.7106 5.44743 12.125 5.04465 11.7136L1.54213 8.13635C1.48725 8.08029 1.48545 7.97821 1.53988 7.9197L1.1738 7.57913L1.53988 7.9197C1.559 7.89914 1.5805 7.88928 1.59939 7.8864L6.43976 7.14945C7.0105 7.06255 7.49254 6.689 7.73867 6.16645L9.90335 1.57075C9.92118 1.5329 9.94754 1.51352 9.97077 1.50526C9.99346 1.4972 10.0169 1.49795 10.0412 1.51051Z" fill="#F2E62F" stroke="#F2E62F"/>
</svg>
