<?xml version="1.0" encoding="UTF-8"?>
<svg xmlns="http://www.w3.org/2000/svg" xmlns:xlink="http://www.w3.org/1999/xlink" width="90pt" height="89.999999pt" viewBox="0 0 90 89.999999" version="1.2">
<defs>
<clipPath id="clip1">
  <path d="M 0 0 L 89 0 L 89 89.25 L 0 89.25 Z M 0 0 "/>
</clipPath>
</defs>
<g id="surface1">
<g clip-path="url(#clip1)" clip-rule="nonzero">
<path style=" stroke:none;fill-rule:nonzero;fill:rgb(39.219666%,27.449036%,50.979614%);fill-opacity:1;" d="M 4.164062 31.425781 L 11.804688 31.425781 L 11.804688 33.859375 L 4.164062 33.859375 C 3.496094 33.859375 2.953125 33.3125 2.953125 32.644531 C 2.953125 31.972656 3.496094 31.425781 4.164062 31.425781 Z M 31.105469 37.648438 L 32.9375 48.679688 L 25.621094 48.679688 L 23.875 36.988281 Z M 28.039062 32.910156 L 35.417969 32.910156 L 35.417969 35.066406 L 28.039062 34.394531 Z M 33.203125 24.015625 L 34.109375 24.015625 C 33.347656 24.949219 32.207031 25.5 30.988281 25.5 C 30.175781 25.5 29.515625 26.164062 29.515625 26.980469 C 29.515625 27.800781 30.175781 28.460938 30.988281 28.460938 C 32.628906 28.460938 34.183594 27.890625 35.417969 26.875 L 35.417969 29.945312 L 28.039062 29.945312 L 28.039062 24.015625 Z M 30.988281 18.828125 C 30.988281 17.605469 31.984375 16.605469 33.203125 16.605469 C 34.425781 16.605469 35.417969 17.605469 35.417969 18.828125 L 35.417969 21.054688 L 33.203125 21.054688 C 31.984375 21.054688 30.988281 20.054688 30.988281 18.828125 Z M 40.582031 16.605469 C 41.800781 16.605469 42.796875 17.605469 42.796875 18.828125 C 42.796875 20.054688 41.800781 21.054688 40.582031 21.054688 L 38.367188 21.054688 L 38.367188 18.828125 C 38.367188 17.605469 39.363281 16.605469 40.582031 16.605469 Z M 45.746094 29.945312 L 38.367188 29.945312 L 38.367188 26.875 C 39.601562 27.890625 41.15625 28.460938 42.796875 28.460938 C 43.609375 28.460938 44.269531 27.800781 44.269531 26.980469 C 44.269531 26.164062 43.609375 25.5 42.796875 25.5 C 41.578125 25.5 40.4375 24.949219 39.675781 24.015625 L 45.746094 24.015625 Z M 62.324219 16.8125 C 62.851562 16.398438 63.035156 15.679688 62.773438 15.0625 C 61.273438 11.539062 62.328125 7.425781 65.339844 5.066406 C 67.117188 3.671875 69.324219 3.058594 71.5625 3.332031 C 73.796875 3.609375 75.792969 4.742188 77.179688 6.527344 C 78.183594 7.816406 78.789062 9.359375 78.933594 10.984375 C 78.984375 11.566406 79.371094 12.0625 79.917969 12.253906 C 81.457031 12.789062 82.800781 13.753906 83.804688 15.042969 C 86.667969 18.722656 86.011719 24.058594 82.347656 26.933594 C 79.335938 29.292969 75.109375 29.328125 72.066406 27.011719 C 71.535156 26.605469 70.792969 26.613281 70.269531 27.027344 L 57.453125 37.078125 L 48.699219 36.28125 L 48.699219 27.5 Z M 68.078125 48.679688 L 65.15625 48.679688 L 66.269531 40.859375 L 69.152344 41.121094 Z M 63.617188 59.503906 L 64.734375 51.644531 L 67.65625 51.644531 L 66.585938 59.183594 Z M 35.242188 62.558594 L 27.8125 63.355469 L 26.0625 51.644531 L 33.429688 51.644531 Z M 43.785156 51.644531 L 45.613281 61.441406 L 38.179688 62.242188 L 36.421875 51.644531 Z M 41.347656 38.585938 L 43.230469 48.679688 L 35.929688 48.679688 L 34.144531 37.925781 Z M 45.746094 36.011719 L 38.367188 35.335938 L 38.367188 32.910156 L 45.746094 32.910156 Z M 53.125 39.789062 L 53.125 48.679688 L 46.234375 48.679688 L 44.402344 38.863281 L 53.132812 39.660156 C 53.128906 39.703125 53.125 39.746094 53.125 39.789062 Z M 48.558594 61.125 L 46.789062 51.644531 L 53.125 51.644531 L 53.125 60.632812 Z M 56.078125 60.316406 L 56.078125 51.644531 L 61.753906 51.644531 L 60.589844 59.828125 Z M 63.328125 40.589844 L 62.175781 48.679688 L 56.078125 48.679688 L 56.078125 39.929688 Z M 36.1875 75.882812 L 35.511719 77.582031 C 35.011719 77.441406 34.484375 77.367188 33.941406 77.367188 C 33.398438 77.367188 32.871094 77.441406 32.371094 77.582031 L 31.695312 75.882812 Z M 64.226562 75.882812 L 63.550781 77.582031 C 63.050781 77.441406 62.523438 77.367188 61.980469 77.367188 C 61.4375 77.367188 60.910156 77.441406 60.410156 77.582031 L 59.734375 75.882812 Z M 61.980469 86.257812 C 60.351562 86.257812 59.027344 84.929688 59.027344 83.292969 C 59.027344 81.660156 60.351562 80.332031 61.980469 80.332031 C 63.605469 80.332031 64.929688 81.660156 64.929688 83.292969 C 64.929688 84.929688 63.605469 86.257812 61.980469 86.257812 Z M 33.941406 86.257812 C 32.3125 86.257812 30.988281 84.929688 30.988281 83.292969 C 30.988281 81.660156 32.3125 80.332031 33.941406 80.332031 C 35.570312 80.332031 36.894531 81.660156 36.894531 83.292969 C 36.894531 84.929688 35.570312 86.257812 33.941406 86.257812 Z M 0 32.644531 C 0 34.949219 1.867188 36.824219 4.164062 36.824219 L 13.28125 36.824219 C 14.097656 36.824219 14.757812 36.160156 14.757812 35.34375 L 14.757812 33.859375 L 17.261719 33.859375 L 20.773438 36.210938 L 24.957031 64.210938 L 21.757812 66.105469 C 20.171875 67.042969 19.183594 68.777344 19.183594 70.628906 C 19.183594 73.527344 21.53125 75.882812 24.417969 75.882812 L 28.515625 75.882812 L 29.789062 79.085938 C 28.710938 80.160156 28.039062 81.648438 28.039062 83.292969 C 28.039062 86.5625 30.6875 89.222656 33.941406 89.222656 C 37.195312 89.222656 39.84375 86.5625 39.84375 83.292969 C 39.84375 81.648438 39.171875 80.160156 38.09375 79.085938 L 39.367188 75.882812 L 56.554688 75.882812 L 57.828125 79.085938 C 56.746094 80.160156 56.078125 81.648438 56.078125 83.292969 C 56.078125 86.5625 58.726562 89.222656 61.980469 89.222656 C 65.234375 89.222656 67.882812 86.5625 67.882812 83.292969 C 67.882812 81.648438 67.210938 80.160156 66.132812 79.085938 L 67.40625 75.882812 L 69.359375 75.882812 C 70.171875 75.882812 70.835938 75.222656 70.835938 74.402344 C 70.835938 73.585938 70.171875 72.921875 69.359375 72.921875 L 24.417969 72.921875 C 23.160156 72.921875 22.136719 71.894531 22.136719 70.628906 C 22.136719 69.824219 22.566406 69.066406 23.257812 68.65625 L 27.035156 66.421875 L 68.039062 62.007812 C 68.710938 61.9375 69.25 61.417969 69.34375 60.746094 L 72.292969 39.996094 C 72.351562 39.597656 72.242188 39.1875 71.992188 38.867188 C 71.742188 38.550781 71.371094 38.347656 70.96875 38.3125 L 61.746094 37.472656 L 71.238281 30.027344 C 75.242188 32.476562 80.40625 32.214844 84.164062 29.269531 C 89.113281 25.386719 89.992188 18.1875 86.128906 13.21875 C 84.96875 11.722656 83.46875 10.554688 81.753906 9.796875 C 81.433594 7.941406 80.667969 6.195312 79.507812 4.703125 C 77.632812 2.296875 74.941406 0.765625 71.921875 0.390625 C 68.902344 0.0195312 65.921875 0.847656 63.523438 2.730469 C 59.765625 5.679688 58.261719 10.648438 59.660156 15.140625 L 48.699219 23.738281 L 48.699219 22.535156 C 48.699219 21.714844 48.039062 21.054688 47.222656 21.054688 L 45.246094 21.054688 C 45.566406 20.378906 45.746094 19.625 45.746094 18.828125 C 45.746094 15.96875 43.429688 13.644531 40.582031 13.644531 C 39.136719 13.644531 37.832031 14.242188 36.894531 15.203125 C 35.953125 14.242188 34.648438 13.644531 33.203125 13.644531 C 30.355469 13.644531 28.039062 15.96875 28.039062 18.828125 C 28.039062 19.625 28.21875 20.378906 28.539062 21.054688 L 26.5625 21.054688 C 25.746094 21.054688 25.085938 21.714844 25.085938 22.535156 L 25.085938 34.125 L 22.640625 33.902344 L 18.527344 31.144531 C 18.285156 30.984375 18 30.898438 17.707031 30.898438 L 14.757812 30.898438 L 14.757812 29.945312 C 14.757812 29.125 14.097656 28.460938 13.28125 28.460938 L 4.164062 28.460938 C 1.867188 28.460938 0 30.339844 0 32.644531 "/>
</g>
<path style=" stroke:none;fill-rule:nonzero;fill:rgb(39.219666%,27.449036%,50.979614%);fill-opacity:1;" d="M 56.078125 34.390625 C 56.394531 34.390625 56.714844 34.289062 56.984375 34.078125 L 58.878906 32.597656 C 59.523438 32.09375 59.640625 31.164062 59.140625 30.515625 C 58.636719 29.871094 57.710938 29.753906 57.070312 30.257812 L 55.171875 31.738281 C 54.527344 32.242188 54.410156 33.171875 54.910156 33.816406 C 55.203125 34.195312 55.636719 34.390625 56.078125 34.390625 "/>
<path style=" stroke:none;fill-rule:nonzero;fill:rgb(39.219666%,27.449036%,50.979614%);fill-opacity:1;" d="M 61.769531 29.945312 C 62.085938 29.945312 62.40625 29.84375 62.675781 29.632812 L 67.3125 26.007812 C 67.957031 25.507812 68.074219 24.574219 67.570312 23.929688 C 67.070312 23.285156 66.144531 23.167969 65.5 23.671875 L 60.863281 27.292969 C 60.21875 27.796875 60.105469 28.726562 60.605469 29.371094 C 60.894531 29.746094 61.332031 29.945312 61.769531 29.945312 "/>
<path style=" stroke:none;fill-rule:nonzero;fill:rgb(39.219666%,27.449036%,50.979614%);fill-opacity:1;" d="M 13.28125 52.171875 C 13.28125 51.355469 12.621094 50.691406 11.804688 50.691406 L 7.378906 50.691406 C 6.5625 50.691406 5.902344 51.355469 5.902344 52.171875 C 5.902344 52.992188 6.5625 53.65625 7.378906 53.65625 L 11.804688 53.65625 C 12.621094 53.65625 13.28125 52.992188 13.28125 52.171875 "/>
<path style=" stroke:none;fill-rule:nonzero;fill:rgb(39.219666%,27.449036%,50.979614%);fill-opacity:1;" d="M 16.234375 44.765625 L 11.804688 44.765625 C 10.992188 44.765625 10.328125 45.425781 10.328125 46.246094 C 10.328125 47.0625 10.992188 47.726562 11.804688 47.726562 L 16.234375 47.726562 C 17.046875 47.726562 17.707031 47.0625 17.707031 46.246094 C 17.707031 45.425781 17.046875 44.765625 16.234375 44.765625 "/>
<path style=" stroke:none;fill-rule:nonzero;fill:rgb(39.219666%,27.449036%,50.979614%);fill-opacity:1;" d="M 11.804688 59.582031 L 16.234375 59.582031 C 17.046875 59.582031 17.707031 58.917969 17.707031 58.101562 C 17.707031 57.28125 17.046875 56.621094 16.234375 56.621094 L 11.804688 56.621094 C 10.992188 56.621094 10.328125 57.28125 10.328125 58.101562 C 10.328125 58.917969 10.992188 59.582031 11.804688 59.582031 "/>
</g>
</svg>
