{
    "key": "group_60ce3836cd013",
    "title": "Text image items section tips",
    "fields": [],
    "location": [
        [
            {
                "param": "page_template",
                "operator": "==",
                "value": "templates\/page-tips-for-a-fun-day-out.php"
            }
        ]
    ],
    "menu_order": 0,
    "position": "normal",
    "style": "default",
    "label_placement": "top",
    "instruction_placement": "label",
    "hide_on_screen": "",
    "active": true,
    "description": "",
    "modified": 1624127563
}