{
    "key": "group_60cde1dd968bf",
    "title": "Three col images section",
    "fields": [],
    "location": [
        [
            {
                "param": "page_template",
                "operator": "==",
                "value": "templates\/page-diy-school-events.php"
            }
        ]
    ],
    "menu_order": 0,
    "position": "normal",
    "style": "default",
    "label_placement": "top",
    "instruction_placement": "label",
    "hide_on_screen": "",
    "active": true,
    "description": "",
    "modified": 1624105459
}