<svg width="76" height="76" viewBox="0 0 76 76" fill="none" xmlns="http://www.w3.org/2000/svg">
<path d="M38 0C17.0472 0 0 17.0472 0 38C0 58.9529 17.0472 76 38 76C58.9529 76 76 58.9529 76 38C76 17.0472 58.9529 0 38 0ZM68.0306 50.5388C64.2951 59.4536 56.7006 66.3657 47.3459 69.1749C47.5136 68.8634 47.676 68.5486 47.8332 68.2303C48.6368 66.6039 49.4813 65.4572 50.8986 64.3135C51.9833 63.4376 54.1129 62.0809 53.7647 60.3702C53.5135 59.1338 52.1021 58.6266 51.0354 58.3243C49.3431 57.8448 47.5327 57.7206 45.7863 57.5997C44.2739 57.494 42.7033 57.5479 41.2268 57.1713C39.0172 56.6089 38.5191 54.6961 38.3793 52.6798C38.2547 50.8875 38.2814 49.0447 37.4 47.4228C36.2649 45.3352 33.6526 44.7416 31.4864 44.5424C29.6579 44.375 27.8316 44.4632 26.0129 44.1585C24.2631 43.8654 22.6059 43.2509 20.8092 43.3205C18.4805 43.4103 17.4348 44.9886 16.4415 46.8139C15.9512 47.7153 12.8543 54.6474 11.0347 56.2016C7.89711 51.5697 5.92341 46.0892 5.53033 40.183C5.78749 40.1137 6.04235 40.0177 6.30111 39.8889C7.3135 39.3862 8.02277 38.4788 9.12442 38.1195C10.1748 37.7773 11.5319 38.0808 12.605 38.1859C13.6729 38.2904 14.7574 38.401 15.8262 38.2556C17.9597 37.9641 19.0901 36.4904 19.4309 34.4331C19.6335 33.2042 19.4754 31.9684 19.512 30.731C19.5698 28.8029 20.8351 28.1112 22.5787 27.9471C25.8722 27.6378 33.5547 28.5106 33.7102 23.4419C33.7765 21.2738 31.1961 20.1548 29.5154 19.5762C26.2428 18.4503 22.6671 18.8434 19.3199 18.0613C17.5396 17.6453 16.0379 16.5348 14.7788 15.2223C20.6899 9.19901 28.915 5.45503 38 5.45503C39.9431 5.45503 41.8451 5.62647 43.6945 5.95487C42.7489 6.13055 41.8156 6.38011 40.9074 6.74686C36.1164 8.67849 35.9722 14.1139 38.0663 18.1972C39.365 20.7296 41.4683 22.8513 43.6652 24.6155C45.7919 26.3227 48.1158 27.3315 50.4739 28.6266C53.6024 30.3468 53.2247 34.8393 54.0162 37.8662C54.6838 40.4189 56.2868 42.5724 58.8136 43.4561C60.3412 43.9899 62.1355 43.5733 63.4731 44.6376C64.6219 45.5491 64.8918 47.415 65.5484 48.669C66.2024 49.9202 67.0728 50.4469 68.0306 50.5388Z" fill="white"/>
</svg>
