<svg width="18" height="18" viewBox="0 0 18 18" fill="none" xmlns="http://www.w3.org/2000/svg">
<path d="M1 1L17 17" stroke="white" stroke-linecap="round" stroke-linejoin="round"/>
<path d="M17 1L1 17" stroke="white" stroke-linecap="round" stroke-linejoin="round"/>
</svg>
