<svg width="24" height="24" viewBox="0 0 24 24" fill="none" xmlns="http://www.w3.org/2000/svg">
<g clip-path="url(#clip0)">
<path d="M23.6481 3.53835C23.1795 3.0697 22.4197 3.0697 21.951 3.53835L7.57425 17.9152L2.04807 12.3891C1.57946 11.9204 0.819707 11.9204 0.351004 12.3891C-0.117652 12.8577 -0.117652 13.6174 0.351004 14.0861L6.72572 20.4607C7.19419 20.9293 7.9545 20.929 8.42278 20.4607L23.6481 5.23541C24.1167 4.7668 24.1167 4.00701 23.6481 3.53835Z" fill="white"/>
</g>
<defs>
<clipPath id="clip0">
<rect width="24" height="24" fill="white"/>
</clipPath>
</defs>
</svg>
