2022-03-11T06:57:06+00:00 CRITICAL require_once(): Failed opening required 'dbcontroller.php' (include_path='.:/opt/cpanel/ea-php74/root/usr/share/pear') in /home1/nlinepu4/public_html/colourfrenzy/wp-content/themes/color-frenzy-schools/include/school/school-fundraising-detail.php on line 234

2022-03-11T07:00:41+00:00 CRITICAL Uncaught Error: Call to a member function get_results() on null in /home1/nlinepu4/public_html/colourfrenzy/wp-content/themes/color-frenzy-schools/include/school/school-fundraising-detail.php:239
Stack trace:
#0 /home1/nlinepu4/public_html/colourfrenzy/wp-includes/shortcodes.php(343): school_fundraising_detail_callback('', '', 'school_fundrais...')
#1 [internal function]: do_shortcode_tag(Array)
#2 /home1/nlinepu4/public_html/colourfrenzy/wp-includes/shortcodes.php(218): preg_replace_callback('/\\[(\\[?)(school...', 'do_shortcode_ta...', '[school_fundrai...')
#3 /home1/nlinepu4/public_html/colourfrenzy/wp-includes/class-wp-hook.php(287): do_shortcode('[school_fundrai...')
#4 /home1/nlinepu4/public_html/colourfrenzy/wp-includes/plugin.php(212): WP_Hook->apply_filters('[school_fundrai...', Array)
#5 /home1/nlinepu4/public_html/colourfrenzy/wp-includes/post-template.php(253): apply_filters('the_content', '[school_fundrai...')
#6 /home1/nlinepu4/public_html/colourfrenzy/wp-content/themes/color-frenzy-schools/temp in /home1/nlinepu4/public_html/colourfrenzy/wp-content/themes/color-frenzy-schools/include/school/school-fundraising-detail.php on line 239

2022-03-11T07:01:07+00:00 CRITICAL Uncaught Error: Call to a member function get_results() on null in /home1/nlinepu4/public_html/colourfrenzy/wp-content/themes/color-frenzy-schools/include/school/school-fundraising-detail.php:239
Stack trace:
#0 /home1/nlinepu4/public_html/colourfrenzy/wp-includes/shortcodes.php(343): school_fundraising_detail_callback('', '', 'school_fundrais...')
#1 [internal function]: do_shortcode_tag(Array)
#2 /home1/nlinepu4/public_html/colourfrenzy/wp-includes/shortcodes.php(218): preg_replace_callback('/\\[(\\[?)(school...', 'do_shortcode_ta...', '[school_fundrai...')
#3 /home1/nlinepu4/public_html/colourfrenzy/wp-includes/class-wp-hook.php(287): do_shortcode('[school_fundrai...')
#4 /home1/nlinepu4/public_html/colourfrenzy/wp-includes/plugin.php(212): WP_Hook->apply_filters('[school_fundrai...', Array)
#5 /home1/nlinepu4/public_html/colourfrenzy/wp-includes/post-template.php(253): apply_filters('the_content', '[school_fundrai...')
#6 /home1/nlinepu4/public_html/colourfrenzy/wp-content/themes/color-frenzy-schools/temp in /home1/nlinepu4/public_html/colourfrenzy/wp-content/themes/color-frenzy-schools/include/school/school-fundraising-detail.php on line 239

2022-03-11T07:02:17+00:00 CRITICAL Uncaught Error: Call to a member function get_results() on null in /home1/nlinepu4/public_html/colourfrenzy/wp-content/themes/color-frenzy-schools/include/school/school-fundraising-detail.php:239
Stack trace:
#0 /home1/nlinepu4/public_html/colourfrenzy/wp-includes/shortcodes.php(343): school_fundraising_detail_callback('', '', 'school_fundrais...')
#1 [internal function]: do_shortcode_tag(Array)
#2 /home1/nlinepu4/public_html/colourfrenzy/wp-includes/shortcodes.php(218): preg_replace_callback('/\\[(\\[?)(school...', 'do_shortcode_ta...', '[school_fundrai...')
#3 /home1/nlinepu4/public_html/colourfrenzy/wp-includes/class-wp-hook.php(287): do_shortcode('[school_fundrai...')
#4 /home1/nlinepu4/public_html/colourfrenzy/wp-includes/plugin.php(212): WP_Hook->apply_filters('[school_fundrai...', Array)
#5 /home1/nlinepu4/public_html/colourfrenzy/wp-includes/post-template.php(253): apply_filters('the_content', '[school_fundrai...')
#6 /home1/nlinepu4/public_html/colourfrenzy/wp-content/themes/color-frenzy-schools/temp in /home1/nlinepu4/public_html/colourfrenzy/wp-content/themes/color-frenzy-schools/include/school/school-fundraising-detail.php on line 239

2022-03-11T07:02:17+00:00 CRITICAL Uncaught Error: Call to a member function get_results() on null in /home1/nlinepu4/public_html/colourfrenzy/wp-content/themes/color-frenzy-schools/include/school/school-fundraising-detail.php:239
Stack trace:
#0 /home1/nlinepu4/public_html/colourfrenzy/wp-includes/shortcodes.php(343): school_fundraising_detail_callback('', '', 'school_fundrais...')
#1 [internal function]: do_shortcode_tag(Array)
#2 /home1/nlinepu4/public_html/colourfrenzy/wp-includes/shortcodes.php(218): preg_replace_callback('/\\[(\\[?)(school...', 'do_shortcode_ta...', '[school_fundrai...')
#3 /home1/nlinepu4/public_html/colourfrenzy/wp-includes/class-wp-hook.php(287): do_shortcode('[school_fundrai...')
#4 /home1/nlinepu4/public_html/colourfrenzy/wp-includes/plugin.php(212): WP_Hook->apply_filters('[school_fundrai...', Array)
#5 /home1/nlinepu4/public_html/colourfrenzy/wp-includes/post-template.php(253): apply_filters('the_content', '[school_fundrai...')
#6 /home1/nlinepu4/public_html/colourfrenzy/wp-content/themes/color-frenzy-schools/temp in /home1/nlinepu4/public_html/colourfrenzy/wp-content/themes/color-frenzy-schools/include/school/school-fundraising-detail.php on line 239

2022-03-11T07:02:18+00:00 CRITICAL Uncaught Error: Call to a member function get_results() on null in /home1/nlinepu4/public_html/colourfrenzy/wp-content/themes/color-frenzy-schools/include/school/school-fundraising-detail.php:239
Stack trace:
#0 /home1/nlinepu4/public_html/colourfrenzy/wp-includes/shortcodes.php(343): school_fundraising_detail_callback('', '', 'school_fundrais...')
#1 [internal function]: do_shortcode_tag(Array)
#2 /home1/nlinepu4/public_html/colourfrenzy/wp-includes/shortcodes.php(218): preg_replace_callback('/\\[(\\[?)(school...', 'do_shortcode_ta...', '[school_fundrai...')
#3 /home1/nlinepu4/public_html/colourfrenzy/wp-includes/class-wp-hook.php(287): do_shortcode('[school_fundrai...')
#4 /home1/nlinepu4/public_html/colourfrenzy/wp-includes/plugin.php(212): WP_Hook->apply_filters('[school_fundrai...', Array)
#5 /home1/nlinepu4/public_html/colourfrenzy/wp-includes/post-template.php(253): apply_filters('the_content', '[school_fundrai...')
#6 /home1/nlinepu4/public_html/colourfrenzy/wp-content/themes/color-frenzy-schools/temp in /home1/nlinepu4/public_html/colourfrenzy/wp-content/themes/color-frenzy-schools/include/school/school-fundraising-detail.php on line 239

2022-03-11T07:02:18+00:00 CRITICAL Uncaught Error: Call to a member function get_results() on null in /home1/nlinepu4/public_html/colourfrenzy/wp-content/themes/color-frenzy-schools/include/school/school-fundraising-detail.php:239
Stack trace:
#0 /home1/nlinepu4/public_html/colourfrenzy/wp-includes/shortcodes.php(343): school_fundraising_detail_callback('', '', 'school_fundrais...')
#1 [internal function]: do_shortcode_tag(Array)
#2 /home1/nlinepu4/public_html/colourfrenzy/wp-includes/shortcodes.php(218): preg_replace_callback('/\\[(\\[?)(school...', 'do_shortcode_ta...', '[school_fundrai...')
#3 /home1/nlinepu4/public_html/colourfrenzy/wp-includes/class-wp-hook.php(287): do_shortcode('[school_fundrai...')
#4 /home1/nlinepu4/public_html/colourfrenzy/wp-includes/plugin.php(212): WP_Hook->apply_filters('[school_fundrai...', Array)
#5 /home1/nlinepu4/public_html/colourfrenzy/wp-includes/post-template.php(253): apply_filters('the_content', '[school_fundrai...')
#6 /home1/nlinepu4/public_html/colourfrenzy/wp-content/themes/color-frenzy-schools/temp in /home1/nlinepu4/public_html/colourfrenzy/wp-content/themes/color-frenzy-schools/include/school/school-fundraising-detail.php on line 239

2022-03-11T07:04:48+00:00 CRITICAL syntax error, unexpected end of file, expecting elseif (T_ELSEIF) or else (T_ELSE) or endif (T_ENDIF) in /home1/nlinepu4/public_html/colourfrenzy/wp-content/themes/color-frenzy-schools/include/school/school-fundraising-detail.php on line 511

2022-03-11T07:04:48+00:00 CRITICAL syntax error, unexpected end of file, expecting elseif (T_ELSEIF) or else (T_ELSE) or endif (T_ENDIF) in /home1/nlinepu4/public_html/colourfrenzy/wp-content/themes/color-frenzy-schools/include/school/school-fundraising-detail.php on line 511

2022-03-11T07:12:31+00:00 CRITICAL Uncaught Error: Cannot use object of type stdClass as array in /home1/nlinepu4/public_html/colourfrenzy/wp-content/themes/color-frenzy-schools/include/school/school-fundraising-detail.php:247
Stack trace:
#0 /home1/nlinepu4/public_html/colourfrenzy/wp-includes/shortcodes.php(343): school_fundraising_detail_callback('', '', 'school_fundrais...')
#1 [internal function]: do_shortcode_tag(Array)
#2 /home1/nlinepu4/public_html/colourfrenzy/wp-includes/shortcodes.php(218): preg_replace_callback('/\\[(\\[?)(school...', 'do_shortcode_ta...', '[school_fundrai...')
#3 /home1/nlinepu4/public_html/colourfrenzy/wp-includes/class-wp-hook.php(287): do_shortcode('[school_fundrai...')
#4 /home1/nlinepu4/public_html/colourfrenzy/wp-includes/plugin.php(212): WP_Hook->apply_filters('[school_fundrai...', Array)
#5 /home1/nlinepu4/public_html/colourfrenzy/wp-includes/post-template.php(253): apply_filters('the_content', '[school_fundrai...')
#6 /home1/nlinepu4/public_html/colourfrenzy/wp-content/themes/color-frenzy-schools/template in /home1/nlinepu4/public_html/colourfrenzy/wp-content/themes/color-frenzy-schools/include/school/school-fundraising-detail.php on line 247

